…
### 6. From the data set in step 4, creates a second, independent tidy data set with the average of each variable for each activity and each subject

Prints out the mean of each variable for each activity (6) and subject (30).

``` r
meansdData <- data.frame(completeData[,1:2], X_meansd) %>%
              tbl_df() %>%
              group_by(Activity, Subject)%>%
              summarize_all(mean) %>%
              print
```

    ## Source: local data frame [180 x 81]
    ## Groups: Activity [?]
    ## 
    ##    Activity Subject tBodyAcc.mean...X tBodyAcc.mean...Y tBodyAcc.mean...Z
    ##      <fctr>   <int>             <dbl>             <dbl>             <dbl>
    ## 1    LAYING       1         0.2215982       -0.04051395        -0.1132036
    ## 2    LAYING       2         0.2813734       -0.01815874        -0.1072456
    ## 3    LAYING       3         0.2755169       -0.01895568        -0.1013005
    ## 4    LAYING       4         0.2635592       -0.01500318        -0.1106882
    ## 5    LAYING       5         0.2783343       -0.01830421        -0.1079376
    ## 6    LAYING       6         0.2486565       -0.01025292        -0.1331196
    ## 7    LAYING       7         0.2501767       -0.02044115        -0.1013610
    ## 8    LAYING       8         0.2612543       -0.02122817        -0.1022454
    ## 9    LAYING       9         0.2591955       -0.02052682        -0.1075497
    ## 10   LAYING      10         0.2802306       -0.02429448        -0.1171686
    ## # ... with 170 more rows, and 76 more variables: tBodyAcc.std...X <dbl>,
    ## #   tBodyAcc.std...Y <dbl>, tBodyAcc.std...Z <dbl>,
    ## #   tGravityAcc.mean...X <dbl>, tGravityAcc.mean...Y <dbl>,
    ## #   tGravityAcc.mean...Z <dbl>, tGravityAcc.std...X <dbl>,
    ## #   tGravityAcc.std...Y <dbl>, tGravityAcc.std...Z <dbl>,
    ## #   tBodyAccJerk.mean...X <dbl>, tBodyAccJerk.mean...Y <dbl>,
    ## #   tBodyAccJerk.mean...Z <dbl>, tBodyAccJerk.std...X <dbl>,
    ## #   tBodyAccJerk.std...Y <dbl>, tBodyAccJerk.std...Z <dbl>,
    ## #   tBodyGyro.mean...X <dbl>, tBodyGyro.mean...Y <dbl>,
…
